%YAML 1.1
%TAG !u! tag:unity3d.com,2011:
--- !u!74 &7400000
AnimationClip:
  m_ObjectHideFlags: 0
  m_CorrespondingSourceObject: {fileID: 0}
  m_PrefabInstance: {fileID: 0}
  m_PrefabAsset: {fileID: 0}
  m_Name: Attack Zombie
  serializedVersion: 6
  m_Legacy: 0
  m_Compressed: 0
  m_UseHighQualityCurve: 1
  m_RotationCurves: []
  m_CompressedRotationCurves: []
  m_EulerCurves: []
  m_PositionCurves: []
  m_ScaleCurves: []
  m_FloatCurves: []
  m_PPtrCurves:
  - curve:
    - time: 0
      value: {fileID: 21300000, guid: 74553166a8d2c43cf96dfea716b81df4, type: 3}
    - time: 0.1
      value: {fileID: 21300000, guid: e267a269acbff4c54875f0962b6df57d, type: 3}
    - time: 0.2
      value: {fileID: 21300000, guid: 0dede593a2cd74f6dabccd32336020fd, type: 3}
    - time: 0.3
      value: {fileID: 21300000, guid: b2d0646b74ca5446bb0893fefa40f46f, type: 3}
    - time: 0.4
      value: {fileID: 21300000, guid: 576d2f5c487d64d2dbb7a460a4e2fe2f, type: 3}
    - time: 0.5
      value: {fileID: 21300000, guid: 2ca435cab6cb24db9b5f8fe0d5448293, type: 3}
    - time: 0.6
      value: {fileID: 21300000, guid: c68b575de5d9643ad8972948afc8b185, type: 3}
    - time: 0.7
      value: {fileID: 21300000, guid: b1efb260db575402f81b1b8922b2d109, type: 3}
    attribute: m_Sprite
    path: 
    classID: 212
    script: {fileID: 0}
  m_SampleRate: 10
  m_WrapMode: 0
  m_Bounds:
    m_Center: {x: 0, y: 0, z: 0}
    m_Extent: {x: 0, y: 0, z: 0}
  m_ClipBindingConstant:
    genericBindings:
    - serializedVersion: 2
      path: 0
      attribute: 0
      script: {fileID: 0}
      typeID: 212
      customType: 23
      isPPtrCurve: 1
    pptrCurveMapping:
    - {fileID: 21300000, guid: 74553166a8d2c43cf96dfea716b81df4, type: 3}
    - {fileID: 21300000, guid: e267a269acbff4c54875f0962b6df57d, type: 3}
    - {fileID: 21300000, guid: 0dede593a2cd74f6dabccd32336020fd, type: 3}
    - {fileID: 21300000, guid: b2d0646b74ca5446bb0893fefa40f46f, type: 3}
    - {fileID: 21300000, guid: 576d2f5c487d64d2dbb7a460a4e2fe2f, type: 3}
    - {fileID: 21300000, guid: 2ca435cab6cb24db9b5f8fe0d5448293, type: 3}
    - {fileID: 21300000, guid: c68b575de5d9643ad8972948afc8b185, type: 3}
    - {fileID: 21300000, guid: b1efb260db575402f81b1b8922b2d109, type: 3}
  m_AnimationClipSettings:
    serializedVersion: 2
    m_AdditiveReferencePoseClip: {fileID: 0}
    m_AdditiveReferencePoseTime: 0
    m_StartTime: 0
    m_StopTime: 0.8
    m_OrientationOffsetY: 0
    m_Level: 0
    m_CycleOffset: 0
    m_HasAdditiveReferencePose: 0
    m_LoopTime: 1
    m_LoopBlend: 0
    m_LoopBlendOrientation: 0
    m_LoopBlendPositionY: 0
    m_LoopBlendPositionXZ: 0
    m_KeepOriginalOrientation: 0
    m_KeepOriginalPositionY: 1
    m_KeepOriginalPositionXZ: 0
    m_HeightFromFeet: 0
    m_Mirror: 0
  m_EditorCurves: []
  m_EulerEditorCurves: []
  m_HasGenericRootTransform: 0
  m_HasMotionFloatCurves: 0
  m_Events: []
